{
  "type": "postgres",
  "host": "localhost",
  "port": 5433,
  "username": "postgres",
  "password": "admin",
  "database": "diplombd",
  "entities": ["dist/**/*.entity{.ts,.js}"],
  "synchronize": true
}
